{
    "location": "39.742043, -104.991531",
    "date": 1581804893,
    "destroyed": 0,
    "valid_until": 1583020800,
    "product": {
        "active_ingredient": "XYZ-111",
        "name": "XYZ",
        "laboratory_account": "0x123112121121121"
    },
    "owner": {
        "account": "0x8e287B1F206eF762D460598bdE1A9C22db6b6382",
        "name": "William Smith Jr",
        "address_1": "1000 N Broadway",
        "address_2": "",
        "city": "Denver",
        "state": "CO",
        "zip_code": "50123",
        "country": "US"
    },
    "shipping_company": {
        "account": "0x5D78a6Bc43E894DAb18E14F188379B70695A7974",
        "name": "Global Transport",
        "address_1": "123 E Colfax",
        "address_2": "",
        "city": "Denver",
        "state": "CO",
        "zip_code": "50124",
        "country": "US"
    }
}